
IF "{&CLEAR_TT}" = "YES" THEN
    EMPTY TEMP-TABLE {&TEMP_DB}.

FOR EACH symix.ITEM NO-LOCK WHERE
    ITEM.ITEM BEGINS "{&BEGINS_WITH}" AND
    ITEM.stat = "A":
    CREATE {&TEMP_DB}.
    ASSIGN
        {&TEMP_DB}.ITEM = ITEM.ITEM.
END.
