
message
	{&CUR_TB} skip
	{&CUR_FD} skip
	{&CUR_CL} skip
	{&CUR_CD} skip
	view-as alert-box.

/*

find first symix.{&CUR_TB} no-lock where
	{&CUR_TB}.{&CUR_FD} = {&CUR_CL} and
	{&CUR_TB}.{&CUR_FD} = {&CUR_CD} no-error.

assign
    found.attr-found = if avail {&CUR_TB} then yes else no
    .

*/